1,2,1,1,1,2
2,3,3,2,3,4
3,4,2,4,5,6
hosts
1,1,10,1,7,8,00:00:00:00:00:01
2,2,11,1,9,10,00:00:00:00:00:02
3,3,8,1,11,12,00:00:00:00:00:03
4,4,9,1,13,14,00:00:00:00:00:04
switches
1,00:00:00:00:00:05
2,00:00:00:00:00:06
3,00:00:00:00:00:07
4,00:00:00:00:00:08
